Final Project
…
Above we can see that looking from the six month perspective, MRNA and RIOT have had large gains gains of 150% and 410% respectively. Google and Southwest (LUV) both seem to have great returns these last six months. The figure below shows the current months return. Google still has a large gain. Whats noticable is that RIOT and MRNA have large losses of 28% and 19% this last month.

yearlyReturns<- data %>%
  group_by(symbol) %>%
  tq_transmute(select = adjusted, mutate_fun = periodReturn, period = "yearly", type = "arithmetic")%>%
  mutate(Year = year(date))
yearlyReturns

## # A tibble: 59 x 4
## # Groups:   symbol [12]
##    symbol date       yearly.returns  Year
##    <chr>  <date>              <dbl> <dbl>
##  1 MSFT   2017-12-29         0.273   2017
##  2 MSFT   2018-12-31         0.208   2018
##  3 MSFT   2019-12-31         0.576   2019
##  4 MSFT   2020-12-31         0.425   2020
##  5 MSFT   2021-04-26         0.179   2021
##  6 GOOG   2017-12-29         0.197   2017
##  7 GOOG   2018-12-31        -0.0103  2018
##  8 GOOG   2019-12-31         0.291   2019
##  9 GOOG   2020-12-31         0.310   2020
## 10 GOOG   2021-04-26         0.328   2021
## # ... with 49 more rows
…
