Stock Data Returns
…
Above we can see that looking from the six month perspective, MRNA and RIOT have had large gains gains of 150% and 410% respectively. Google and Southwest (LUV) both seem to have great returns these last six months. The figure below shows the current months return. Google still has a large gain. What’s noticable is that RIOT and MRNA have large losses of 28% and 19% this last month.

yearlyReturns<- data %>%
  group_by(symbol) %>%
  tq_transmute(select = adjusted, mutate_fun = periodReturn, period = "yearly", type = "arithmetic")%>%
  mutate(Year = year(date))
yearlyReturns

# A tibble: 60 x 4
# Groups:   symbol [12]
   symbol date       yearly.returns  Year
   <chr>  <date>              <dbl> <dbl>
 1 MSFT   2018-12-31         0.159   2018
 2 MSFT   2019-12-31         0.576   2019
 3 MSFT   2020-12-31         0.425   2020
 4 MSFT   2021-12-31         0.525   2021
 5 MSFT   2022-02-11        -0.123   2022
 6 GOOG   2018-12-31        -0.0155  2018
 7 GOOG   2019-12-31         0.291   2019
 8 GOOG   2020-12-31         0.310   2020
 9 GOOG   2021-12-31         0.652   2021
10 GOOG   2022-02-11        -0.0729  2022
# ... with 50 more rows
…
